<svg width="252" height="225" viewBox="0 0 252 225" fill="none" xmlns="http://www.w3.org/2000/svg">
<path d="M190.528 0.661863C188.437 1.04219 183.397 1.85039 179.356 2.51597C175.315 3.134 168.66 4.22745 164.618 4.89303C153.732 6.60452 142.322 8.41109 140.135 8.74388C139.089 8.8865 137.187 9.17175 135.856 9.45699C134.572 9.6947 131.34 10.2177 128.725 10.598C126.11 10.9783 122.782 11.5488 121.356 11.7865C119.93 12.0718 113.844 13.0226 107.807 13.9734C95.2083 15.8751 94.5902 16.0652 92.2132 18.0144C89.5509 20.2013 89.3607 21.4849 90.2164 33.2276C91.2148 46.967 92.2607 61.2294 92.8312 68.1229C93.3542 74.6836 95.5411 103.826 95.9214 109.484C96.064 111.576 96.3017 113.81 96.3968 114.476C96.4919 115.141 96.7296 117.804 96.9197 120.418C97.5853 130.877 97.6329 131.21 99.4394 132.399C100.343 133.017 101.769 133.492 102.672 133.492C103.528 133.492 108.472 132.304 113.654 130.925C118.789 129.499 133.812 125.41 147.028 121.845C160.245 118.279 172.986 114.808 175.315 114.19C179.594 112.954 188.96 110.482 199.324 107.82C206.55 105.918 206.788 105.823 207.453 103.636C208.024 101.735 207.929 99.7854 206.217 76.4426C205.409 65.6983 204.791 56.8556 204.078 46.7293C203.84 43.0687 203.507 38.7899 203.365 37.2211C203.222 35.6522 202.889 31.0407 202.604 26.9997C201.035 4.08483 200.94 3.51434 200.037 2.13564C198.515 -0.241418 196.994 -0.479128 190.528 0.661863ZM165.094 30.7079C165.094 31.3735 162.717 32.2768 160.34 32.562C158.01 32.7998 155.158 31.9915 155.871 31.2784C156.584 30.6129 165.094 30.0899 165.094 30.7079ZM175.838 37.7916C176.123 41.2146 176.646 45.7785 176.979 47.9179C177.645 52.2917 177.55 52.6244 174.65 53.5753C171.797 54.5261 171.607 54.3835 171.845 51.4835C172.082 48.6785 171.987 48.4884 170.846 49.5343C170.419 49.9146 169.515 50.3425 168.802 50.5326C166.473 51.1507 165.902 47.6802 168.232 46.7769C168.66 46.5867 169.753 46.5867 170.609 46.7769L172.225 47.0621V40.4064L169.278 40.9768C167.614 41.3096 163.763 42.0703 160.673 42.7359C155.205 43.8293 155.015 43.8293 154.397 42.9736C153.827 42.2129 153.874 39.5981 154.492 38.885C154.587 38.7899 158.153 38.7424 162.384 38.8375C166.615 38.885 170.704 38.7899 171.417 38.6473C172.653 38.3145 172.701 38.2195 172.701 35.1293C172.701 31.6112 172.891 31.1834 174.364 31.3735C175.22 31.5161 175.363 32.0391 175.838 37.7916ZM131.815 37.8867C131.815 38.1719 130.008 39.9309 127.726 41.8326C124.018 45.0179 123.733 45.3506 124.541 45.9211C125.682 46.7769 136.379 51.9113 138.233 52.4818C140.04 53.0523 140.23 54.0032 138.851 55.572C136.902 57.8065 135.809 58.0917 134.049 56.9032C132.053 55.4769 125.825 50.4375 123.971 48.7736L122.544 47.4425L122.212 53.0523C121.831 59.1376 121.546 60.754 120.928 60.754C120.358 60.754 119.454 58.0442 119.454 56.2851C119.454 55.4769 119.264 54.1458 119.026 53.3376C118.789 52.5294 118.456 50.3425 118.266 48.4884C117.933 45.2556 117.981 45.0654 119.169 43.8769C120.215 42.831 120.548 42.7359 121.403 43.1637C122.259 43.6392 122.592 43.4965 123.876 41.9752C126.063 39.5506 131.815 36.5555 131.815 37.8867ZM176.028 59.5179C176.028 59.8983 174.697 60.7065 173.081 61.372C162.717 65.6032 160.34 66.6967 160.34 67.2672C160.34 68.1229 162.194 72.0213 162.859 72.5918C163.43 73.0196 166.9 71.4983 172.986 68.0754L175.933 66.459L176.742 67.695C177.169 68.3606 177.36 69.1213 177.122 69.3114C176.694 69.7393 172.938 71.3082 167.614 73.3049C165.712 74.018 164.143 74.7311 164.143 74.9213C164.143 75.0639 164.381 75.9197 164.714 76.7754C165.237 78.1541 165.474 78.3443 166.758 78.2492C168.564 78.1541 169.373 78.582 169.373 79.7705C169.373 80.6738 168.469 81.1967 166.996 81.1967C166.473 81.1967 166.045 81.6722 165.807 82.4804C165.284 84.5722 162.812 88.6607 161.243 89.9443C158.343 92.3689 157.677 91.4181 157.44 84.7623C157.25 80.2935 157.297 80.0082 158.2 80.0082C159.151 80.0082 159.246 80.1984 160.15 85.7132L160.435 87.6148L161.338 85.7132C161.766 84.6673 162.194 82.623 162.194 81.1967C162.241 79.0098 161.956 78.1066 160.577 75.7295C159.627 74.1606 158.438 71.9262 157.915 70.7377C157.25 69.359 156.394 68.3131 155.395 67.8376C154.017 67.1245 153.922 66.9344 153.922 64.3196V61.5147L157.487 61.4196C159.436 61.372 163.858 60.8016 167.233 60.136C174.602 58.7097 176.028 58.6146 176.028 59.5179ZM140.372 64.9852C140.372 67.6475 141.609 79.1525 142.227 82.1476C142.559 83.7164 142.512 84.4295 142.084 84.905C141.276 85.7607 139.089 85.1427 138.423 83.9541C137.853 82.9082 138.09 63.1786 138.661 62.2278C139.374 61.0868 140.372 62.7032 140.372 64.9852ZM123.638 69.6442C123.923 71.4508 124.304 74.018 124.494 75.3492C124.779 77.7738 124.826 77.8688 126.015 77.5361C129.818 76.6328 129.676 76.7279 129.533 74.9213C129.39 73.5901 129.581 73.0672 130.341 72.6869C132.1 71.736 132.766 72.0213 132.766 73.8754C132.766 75.7295 132.433 75.682 136.379 74.7311C137.33 74.4934 137.568 74.5885 137.425 75.0639C137.235 75.682 135.048 76.4902 127.917 78.582C124.731 79.4853 124.684 79.6754 126.11 83.8115C127.346 87.4246 127.346 87.7574 125.54 89.6115C123.543 91.6558 122.402 91.6558 122.117 89.6115C121.689 86.9492 121.308 67.1245 121.641 66.7917C122.592 65.8885 123.163 66.6967 123.638 69.6442ZM177.264 79.0098C177.407 79.3426 176.456 81.0066 175.22 82.6705C173.937 84.3345 172.605 86.4263 172.273 87.282C171.892 88.2328 171.322 88.8033 170.751 88.8033C169.61 88.8033 169.61 87.8525 170.704 85.8558C171.227 85 171.892 83.4312 172.225 82.3853C173.176 79.2951 173.984 78.3443 175.601 78.3443C176.361 78.3443 177.122 78.6295 177.264 79.0098ZM138.233 89.9919C140.563 91.7034 142.607 93.0821 142.845 93.0821C143.035 93.0821 143.558 93.605 143.986 94.2706C144.841 95.5542 144.556 98.787 143.605 98.787C142.559 98.787 138.186 95.0788 136.094 92.4165C134.905 90.9427 133.859 89.7542 133.717 89.7542C133.574 89.7542 132.623 91.4181 131.625 93.4149C129.438 97.8362 125.825 103.541 125.207 103.541C124.969 103.541 124.541 102.876 124.256 102.067C123.685 100.451 124.256 98.7395 126.11 96.4099C131.197 90.087 132.766 87.9951 132.766 87.4722C132.766 86.3787 134.002 86.9017 138.233 89.9919ZM121.831 4.60778C121.831 4.79795 122.354 4.89304 123.02 4.75041C123.685 4.65533 124.208 4.46516 124.208 4.37007C124.208 4.27499 123.685 4.17991 123.02 4.17991C122.354 4.17991 121.831 4.37007 121.831 4.60778ZM117.315 5.13074C116.507 5.46353 116.554 5.55861 117.79 5.55861C118.599 5.55861 119.644 5.36844 120.167 5.13074C120.976 4.79795 120.928 4.70287 119.692 4.70287C118.931 4.70287 117.838 4.89303 117.315 5.13074ZM113.749 5.65369C112.561 5.84386 110.659 6.17664 109.471 6.31927C108.33 6.46189 107.236 6.6996 107.141 6.84223C106.428 7.5078 115.128 6.27172 115.889 5.55861C116.126 5.3209 116.221 5.17828 116.126 5.17828C115.984 5.22582 114.938 5.41599 113.749 5.65369ZM102.102 7.5078C100.438 7.93567 100.913 8.12584 103.29 7.98321C105.43 7.88813 106.998 7.03239 104.954 7.07993C104.194 7.12747 102.91 7.31764 102.102 7.5078ZM98.0607 8.45863C97.4902 8.83896 97.4902 8.93404 98.2984 8.93404C98.8214 8.93404 99.5821 8.69633 99.9624 8.45863C100.533 8.0783 100.533 7.98321 99.7247 7.98321C99.2017 7.98321 98.4411 8.22092 98.0607 8.45863ZM95.0181 8.88649C94.8755 9.07666 95.3033 9.17175 95.9214 9.02913C96.587 8.93404 97.1099 8.74387 97.1099 8.64879C97.1099 8.26846 95.2558 8.45862 95.0181 8.88649ZM88.8377 9.83732C88.6951 10.0275 89.123 10.1226 89.741 9.97995C90.4066 9.88487 90.9295 9.69469 90.9295 9.59961C90.9295 9.21928 89.0754 9.40945 88.8377 9.83732ZM66.6835 13.6882C66.0179 13.9259 62.9277 14.8767 59.79 15.8275C48.6178 19.298 38.1587 24.48 27.9849 31.7538C23.7537 34.7489 21.8996 36.508 22.9455 36.508C23.3259 36.508 24.5619 35.6522 25.798 34.6539C34.2128 27.5702 51.0424 19.0128 65.0196 14.7341C67.6343 13.9259 69.3458 13.2603 68.8229 13.2603C68.2999 13.2603 67.3491 13.4505 66.6835 13.6882ZM206.55 40.7867C206.55 41.69 206.645 42.0703 206.788 41.5949C206.883 41.167 206.883 40.4064 206.788 39.9309C206.645 39.5031 206.55 39.8834 206.55 40.7867Z" fill="#CBD5E1"/>
<path d="M22.4226 40.0735C22.2324 40.3113 21.9472 43.449 21.8046 46.967C21.6144 50.4851 21.0439 58.2818 20.5209 64.3196C20.0455 70.3098 19.6177 79.2 19.6177 84.0017C19.6177 94.6984 19.8554 95.364 24.8472 99.2624C28.7456 102.305 29.5538 104.064 28.603 107.344C27.6046 110.577 28.5554 112.669 31.9784 114.761C33.5472 115.712 34.8309 116.663 34.8309 116.853C34.8309 117.043 33.3095 117.566 31.4554 117.994C25.9406 119.23 20.2357 121.179 19.1898 122.13C17.6685 123.556 17.5258 125.125 18.0963 132.066C18.4291 135.584 18.6668 139.577 18.6668 140.861V143.238L10.4422 145.995C1.26673 149.038 -0.0168858 149.704 0.22082 151.32C0.363444 152.604 21.7095 174.805 24.7996 176.945C25.9406 177.753 31.7407 179.987 38.9669 182.46C49.5211 186.025 59.5048 189.686 65.7327 192.206C66.636 192.586 69.7737 193.774 72.6262 194.868C75.5262 195.961 78.7114 197.245 79.7573 197.673C80.8033 198.148 85.3197 200.05 89.741 201.856C94.2099 203.711 101.151 206.611 105.192 208.37C109.233 210.129 113.369 211.84 114.32 212.22C115.271 212.553 118.266 213.837 120.976 215.025C123.685 216.261 128.867 218.496 132.528 220.065C136.189 221.634 139.897 223.202 140.8 223.63C144.271 225.199 146.315 225.009 152.495 222.632C155.633 221.443 161.1 219.352 164.618 218.068C168.137 216.784 174.032 214.55 177.692 213.124C185.774 210.034 195.092 206.515 213.586 199.574C221.288 196.674 230.701 193.061 234.504 191.635C238.307 190.161 242.776 188.45 244.488 187.832C248.291 186.406 248.767 186.025 248.767 184.361C248.767 183.173 248.529 183.03 245.819 182.317C244.155 181.937 241.635 181.081 240.209 180.415C238.783 179.797 236.976 179.132 236.216 178.942C235.455 178.751 235.027 178.419 235.265 178.228C235.788 177.753 246.152 173.902 246.865 173.902C247.15 173.902 248.339 172.999 249.48 171.953C253.188 168.53 252.285 166.153 244.963 160.258C235.74 152.841 224.52 144.712 218.911 141.336C218.435 141.051 217.104 140.148 215.868 139.292C214.584 138.389 213.586 137.818 213.586 137.961C213.586 138.056 215.868 139.863 218.72 141.907C230.463 150.464 243.442 160.543 246.96 163.919C250.098 166.914 250.621 168.482 248.767 169.481C248.101 169.814 243.537 171.382 238.545 172.951C233.601 174.568 211.019 181.984 188.437 189.448C165.855 196.912 146.505 203.14 145.412 203.235C143.558 203.425 143.13 203.188 136.094 197.958C103.671 173.807 97.1574 169.005 95.6837 168.15L94.0197 167.151L95.6837 168.673C97.3001 170.146 103.243 174.805 105.382 176.279C105.905 176.66 108.758 178.704 111.61 180.843C114.51 182.935 118.979 186.168 121.594 187.927C124.208 189.686 127.108 191.778 128.059 192.633C128.963 193.442 130.674 194.868 131.815 195.771C132.908 196.674 135.048 198.433 136.522 199.67C137.995 200.906 139.327 201.952 139.469 201.952C139.659 201.952 140.087 202.427 140.515 203.045C141.181 204.043 141.133 204.138 140.182 204.233C139.089 204.329 135.048 201.524 125.92 194.44C123.115 192.301 120.595 190.542 120.31 190.542C119.502 190.542 116.126 188.497 116.126 187.974C116.126 187.737 115.984 187.689 115.841 187.832C115.651 188.022 114.272 187.071 112.799 185.787C111.277 184.456 109.851 183.41 109.613 183.41C109.376 183.41 108.52 182.792 107.664 181.984C106.808 181.224 105.097 179.987 103.861 179.274C102.625 178.561 101.531 177.801 101.484 177.61C101.389 177.373 101.103 177.325 100.913 177.468C100.675 177.61 100.153 177.23 99.7722 176.66C99.3443 176.089 99.0116 175.756 99.0116 175.994C99.0116 176.184 98.4886 175.709 97.823 174.901C96.4919 173.332 92.7836 171.668 91.8328 172.238C91.4525 172.476 91.3574 172.428 91.5951 172.096C91.7853 171.763 91.5951 171.525 91.1197 171.525C90.6443 171.525 90.4066 171.383 90.5967 171.24C91.1197 170.669 89.741 169.719 88.9803 170.099C88.5049 170.384 87.6967 170.194 86.6508 169.528C85.177 168.625 85.082 168.53 85.8902 167.96C86.3656 167.627 86.5082 167.199 86.223 167.056C85.9853 166.914 85.4148 167.104 84.9869 167.532C84.3213 168.197 84.3213 168.435 84.9393 169.338C85.3197 169.861 85.8426 170.289 86.1279 170.194C86.4131 170.146 86.6508 170.289 86.6508 170.574C86.6508 171.335 86.0328 171.097 84.6541 169.861C83.2754 168.673 82.9426 167.722 83.8934 167.722C84.1787 167.722 84.3213 167.627 84.1787 167.484C83.7033 166.961 82.4197 167.817 82.7049 168.482C82.8475 168.863 82.4197 169.338 81.659 169.719C80.5655 170.194 80.3278 170.194 79.9 169.433C79.6147 168.958 78.9491 168.102 78.4262 167.579L77.4278 166.581L77.0475 168.102C76.8098 168.958 76.3344 169.623 75.954 169.623C75.5737 169.623 75.2409 169.861 75.2409 170.194C75.2409 170.479 74.8606 170.289 74.3852 169.719C73.7672 169.053 73.1491 168.815 72.4835 169.005C71.6278 169.196 71.4852 169.101 71.7229 168.482C71.9606 167.912 71.818 167.769 71.2475 168.007C70.8196 168.15 70.4868 168.53 70.4868 168.863C70.4393 169.148 70.1065 168.958 69.6311 168.435C68.8704 167.484 67.1589 167.341 67.1589 168.197C67.1589 168.435 67.5868 168.53 68.1097 168.435C68.8229 168.292 69.0606 168.482 68.9655 169.053C68.8704 169.623 69.1081 169.814 69.7737 169.719C70.2966 169.671 70.9622 170.004 71.2475 170.479C71.7229 171.192 71.6278 171.335 70.772 171.43C70.0589 171.478 69.9638 171.382 70.4393 171.097C70.772 170.86 70.8671 170.574 70.6294 170.432C70.3917 170.289 69.9163 170.337 69.536 170.574C69.0606 170.86 68.5376 170.717 68.0146 170.241C67.254 169.576 67.1589 169.576 67.1589 170.194C67.1589 170.622 67.5392 171.097 67.9671 171.24C68.5376 171.478 68.6327 171.668 68.2048 172.096C67.3491 172.951 67.4917 174.52 68.395 174.187C69.5835 173.712 70.9147 174.71 70.6294 175.804C70.3442 176.945 71.3425 176.945 72.2458 175.804C72.7688 175.186 72.8163 175.186 72.8639 175.899C72.8639 176.374 72.6262 176.755 72.3409 176.755C72.0557 176.755 71.913 177.183 72.0557 177.705C72.1983 178.228 72.1032 178.561 71.913 178.419C71.6753 178.276 71.4376 178.419 71.3425 178.751C71.1999 179.179 71.0573 179.179 70.772 178.751C70.5819 178.419 70.677 178.181 70.9147 178.181C71.1999 178.181 71.4376 177.801 71.3901 177.325C71.3901 176.897 71.2475 176.755 71.1524 177.087C71.0097 177.42 70.6294 177.563 70.2491 177.42C69.9163 177.278 69.4884 177.42 69.2507 177.753C69.0606 178.133 69.1081 178.228 69.4409 177.991C69.7737 177.801 70.0114 177.801 70.0589 178.038C70.2491 180.083 70.9622 181.984 70.9622 180.415C70.9622 179.987 71.295 179.607 71.7229 179.607C72.3885 179.607 72.3884 179.75 71.913 180.32C71.3901 180.938 71.4376 180.986 72.0557 180.748C72.5786 180.558 72.7688 180.748 72.6737 181.366C72.5786 181.842 72.6262 181.937 72.7212 181.651C73.0065 180.796 73.8147 180.891 73.8147 181.746C73.8147 182.127 74.3376 182.555 75.0032 182.745C75.6213 182.887 76.2868 183.458 76.4295 183.933C76.6196 184.409 77.0475 184.837 77.4278 184.837C77.8082 184.837 78.0934 185.027 78.0934 185.265C78.0934 185.502 78.5688 185.835 79.1868 186.025C79.7573 186.168 79.995 186.453 79.6623 186.548C78.8541 186.881 79.4721 188.165 80.2803 187.832C80.8983 187.594 81.1836 188.212 80.9934 189.306C80.9459 189.543 81.2787 189.591 81.7065 189.401C82.2295 189.21 82.5623 189.401 82.7049 190.114C82.8951 190.684 83.2279 190.969 83.6557 190.827C84.0361 190.684 84.1787 190.732 84.0361 190.97C83.8934 191.207 83.9885 191.54 84.2262 191.683C84.4639 191.825 84.7967 191.635 84.9393 191.207C85.177 190.589 85.3672 190.542 85.9377 191.017C86.318 191.302 86.7934 191.445 87.0311 191.302C87.2689 191.16 87.8394 191.968 88.3148 193.061C89.0754 194.725 89.2181 194.868 89.5508 194.107C89.7886 193.442 89.9312 193.394 89.9312 193.87C89.9787 194.488 90.0263 194.488 90.4541 193.87C90.8345 193.251 90.9295 193.299 90.9295 194.012C90.9295 194.488 91.1197 194.725 91.405 194.583C91.6902 194.44 91.7377 194.63 91.5951 195.011C91.4525 195.438 91.5476 195.771 91.8328 195.771C92.1181 195.771 92.3558 196.009 92.3558 196.294C92.3558 197.102 91.8328 196.865 78.3311 190.542C71.5327 187.356 63.4982 183.601 60.5031 182.222C53.2293 178.894 46.2408 175.519 33.8325 169.481C24.9423 165.155 23.421 164.251 22.5652 162.778C21.757 161.399 21.5193 159.735 21.0914 152.889C20.1406 137.913 20.0455 136.63 19.5701 131.59C19.0472 126.361 19.2373 123.936 20.2357 123.128C21.139 122.367 31.9308 119.658 33.1194 119.895C33.6899 119.99 35.2587 120.608 36.5423 121.274C37.826 121.94 39.6325 122.795 40.5358 123.176C42.0571 123.794 47.1916 126.218 63.1179 133.682C70.5819 137.2 72.3884 138.199 72.3884 138.769C72.3884 139.054 72.6262 139.102 72.8639 138.959C73.1966 138.769 73.2442 139.102 73.054 139.91C72.8163 140.956 72.9114 141.146 73.6245 141.099C75.2885 140.909 75.6212 141.099 75.3835 142.05C75.2409 142.572 74.9557 142.858 74.718 142.715C74.4803 142.573 74.4327 142.763 74.5753 143.143C74.9081 143.999 76.9999 144.474 77.3327 143.761C77.4754 143.476 77.5229 143.666 77.4754 144.189C77.3803 144.712 77.0475 145.092 76.6672 144.997C76.1442 144.854 76.1442 144.997 76.7147 145.71C77.095 146.186 77.6655 146.756 77.9983 146.946C78.2836 147.136 78.5688 147.564 78.5688 147.802C78.5688 148.087 78.3786 148.182 78.1409 148.04C77.9032 147.897 77.7131 148.515 77.7606 149.418C77.8081 150.322 77.9032 150.892 78.0459 150.702C78.236 150.464 78.759 150.132 79.2344 149.941C80.1377 149.656 80.1377 149.656 79.377 150.512C78.9491 150.987 78.5688 151.51 78.5688 151.653C78.5688 152.176 80.8983 152.366 81.136 151.843C81.2787 151.51 81.3737 151.51 81.3737 151.891C81.4213 152.699 84.1787 154.077 85.0344 153.745C85.4148 153.602 85.6525 153.65 85.5098 153.887C84.9393 154.743 87.6967 154.886 92.4984 154.22C97.3951 153.507 98.9165 153.127 115.271 148.658C119.93 147.374 124.066 146.328 124.494 146.328C124.922 146.328 126.3 146.946 127.584 147.707L129.866 149.133L131.91 148.135C134.049 147.041 134.097 147.041 136.094 146.613C136.759 146.471 137.853 146.233 138.613 146.043C139.327 145.9 139.897 145.615 139.897 145.425C139.897 145.235 140.277 145.092 140.753 145.045C141.181 144.997 144.033 144.189 147.028 143.238C150.023 142.335 152.828 141.479 153.209 141.336C158.105 140.1 168.327 136.535 168.802 135.917C169.182 135.489 169.278 135.441 169.087 135.822C168.85 136.345 168.945 136.44 169.563 136.202C170.038 136.012 170.704 135.869 171.084 135.869C171.512 135.869 171.702 135.679 171.56 135.441C170.799 134.253 176.979 136.725 179.927 138.817C180.64 139.292 182.019 140.053 183.017 140.433L184.824 141.194L183.873 140.148L182.922 139.054L184.11 139.435C184.776 139.625 185.822 140.005 186.44 140.243C187.533 140.623 187.533 140.671 186.678 141.384C185.822 142.05 185.822 142.097 186.963 141.764C188.817 141.289 189.055 140.813 187.819 139.958C186.535 139.007 178.643 134.205 175.41 132.351C174.174 131.638 173.271 130.877 173.414 130.64C173.556 130.402 174.46 129.974 175.458 129.689C181.686 127.74 186.392 125.695 186.155 125.125C186.012 124.792 185.679 124.554 185.442 124.602C185.156 124.649 184.871 124.412 184.776 124.079C184.728 123.746 184.776 123.699 184.919 123.984C185.014 124.222 185.346 124.317 185.584 124.174C187.628 122.938 192.383 124.364 197.755 127.93C199.514 129.071 203.555 131.733 206.693 133.777C209.83 135.822 212.635 137.581 212.873 137.676C214.252 138.104 209.07 134.205 202.176 129.594C194.569 124.507 190.481 122.272 187.961 121.797C186.773 121.559 186.725 121.369 186.725 118.612V115.712L194.332 113.667C206.93 110.34 209.878 108.961 211.494 105.823C212.112 104.682 212.16 103.589 211.922 100.498C211.399 94.6034 210.781 94.0804 210.876 99.5952C210.971 103.826 210.829 104.587 209.973 105.776C208.452 107.867 204.743 110.054 201.273 110.91C199.561 111.338 196.519 112.146 194.569 112.669C192.62 113.192 189.292 114.048 187.201 114.523C182.969 115.569 179.689 116.425 173.651 118.136C171.417 118.754 168.85 119.467 167.946 119.705C167.043 119.943 163.715 120.894 160.577 121.797C157.44 122.7 151.687 124.317 147.741 125.363C143.843 126.456 131.863 129.689 121.118 132.636L101.626 137.961H95.6837C91.7377 137.961 88.7902 137.676 86.8885 137.2C85.3197 136.772 82.5623 136.25 80.7082 136.059C78.9016 135.917 76.7622 135.441 76.0016 135.061C74.0999 134.063 60.8359 125.077 55.7966 121.369C53.5621 119.658 50.7572 117.613 49.6162 116.758C48.4277 115.902 47.3818 115.189 47.2391 115.189C47.0965 115.189 46.3834 114.571 45.6703 113.858C44.9571 113.144 44.1014 112.574 43.7211 112.574C43.3407 112.574 42.2948 111.766 41.3916 110.767C40.4883 109.817 37.9686 107.725 35.7817 106.156C33.6423 104.587 30.9325 102.448 29.839 101.402C28.698 100.356 26.7013 98.5968 25.4177 97.4558C24.0865 96.3624 22.5652 94.4607 21.9947 93.2722C20.9488 91.1329 20.9013 90.8952 21.1865 76.5377C21.3767 68.5032 21.5668 61.2769 21.7095 60.5163C21.8046 59.7081 22.1373 55.3343 22.4701 50.7703C23.0406 42.6883 23.0406 39.1227 22.4226 40.0735ZM31.9784 107.154C31.9784 106.964 32.3112 107.154 32.739 107.582C33.1669 108.01 33.9751 108.628 34.5456 108.961C38.8243 111.623 42.4375 114.095 42.6752 114.476C42.8653 114.761 43.8162 115.522 44.8145 116.14C45.8129 116.758 47.144 117.756 47.8096 118.374C48.4752 118.992 49.7113 119.99 50.5195 120.608C51.6129 121.464 51.8506 121.844 51.3752 122.13C50.8047 122.51 51.2326 122.653 52.6588 122.558C52.8015 122.51 53.2769 122.843 53.7047 123.271C54.0851 123.699 54.7506 123.936 55.0834 123.794C55.4638 123.651 55.7015 123.794 55.6064 124.079C55.5588 124.364 56.0343 124.745 56.6998 124.935C57.3654 125.077 57.8884 125.505 57.8884 125.886C57.9359 126.266 58.1736 126.551 58.5064 126.456C58.8392 126.408 59.0769 126.694 59.0769 127.074C59.0769 127.454 59.4097 127.787 59.79 127.787C60.1703 127.787 60.5031 128.025 60.5031 128.31C60.5031 128.548 60.7408 128.643 61.0736 128.453C61.4064 128.263 61.454 128.31 61.2638 128.69C60.9785 129.071 61.2638 129.166 62.1195 128.928C62.9277 128.738 63.3556 128.833 63.3556 129.213C63.3556 129.499 63.5458 129.641 63.7835 129.499C64.0212 129.356 64.3064 129.546 64.4966 129.927C64.6392 130.307 65.0671 130.497 65.495 130.354C65.9228 130.164 67.3015 130.782 68.9179 131.876C70.3917 132.922 71.913 133.92 72.3409 134.205C72.7688 134.443 73.1966 134.776 73.3393 134.918C73.4819 135.061 74.195 135.489 74.9081 135.869C77.3803 137.105 75.4311 136.868 72.3409 135.489C67.4442 133.349 64.2589 131.59 63.9736 130.877C63.831 130.497 63.4982 130.164 63.1654 130.164C62.3097 130.164 55.6539 126.599 50.1391 123.223C47.4768 121.559 45.1949 120.181 45.0998 120.181C44.6719 120.181 33.1194 113.43 31.6931 112.336C30.362 111.29 30.0767 110.767 30.0767 109.246C30.0767 108.248 30.2194 107.059 30.4095 106.584C30.6948 105.823 30.7423 105.823 31.3603 106.679C31.6931 107.154 31.9784 107.344 31.9784 107.154ZM184.443 118.849C184.301 119.23 184.158 119.087 184.158 118.564C184.11 118.041 184.253 117.756 184.396 117.946C184.538 118.089 184.586 118.517 184.443 118.849ZM183.35 118.707C183.54 118.945 183.207 119.04 182.684 118.897C181.591 118.612 181.448 118.279 182.399 118.279C182.779 118.279 183.207 118.469 183.35 118.707ZM77.3327 137.581C77.4754 137.961 77.4278 138.151 77.1426 138.009C76.8573 137.866 76.6672 137.533 76.6672 137.248C76.6672 136.582 76.9999 136.725 77.3327 137.581ZM76.3819 142.763C76.1917 143.143 76.0016 143.476 75.9065 143.476C75.8114 143.476 75.7163 143.143 75.7163 142.763C75.7163 142.382 75.9065 142.05 76.1917 142.05C76.4295 142.05 76.5245 142.382 76.3819 142.763ZM79.0442 169.101C79.0442 169.909 78.1885 170.099 77.9032 169.386C77.7606 168.958 77.9032 168.673 78.3311 168.673C78.7114 168.673 79.0442 168.863 79.0442 169.101ZM83.5606 169.623C83.7033 169.861 83.6082 170.099 83.3705 170.099C83.0852 170.099 82.8475 169.861 82.8475 169.623C82.8475 169.338 82.9426 169.148 83.0377 169.148C83.1803 169.148 83.418 169.338 83.5606 169.623ZM248.053 171.05C247.911 171.287 247.483 171.525 247.198 171.525C246.865 171.525 246.912 171.335 247.34 171.05C248.244 170.479 248.434 170.479 248.053 171.05ZM246.389 171.525C246.389 171.763 246.152 172.001 245.867 172.001C245.629 172.001 245.534 171.763 245.676 171.525C245.819 171.24 246.057 171.05 246.199 171.05C246.294 171.05 246.389 171.24 246.389 171.525ZM68.4425 173.522C68.2999 173.902 68.1573 173.76 68.1573 173.237C68.1097 172.714 68.2524 172.428 68.395 172.619C68.5376 172.761 68.5852 173.189 68.4425 173.522ZM74.0524 180.083C74.195 180.32 74.0999 180.558 73.8622 180.558C73.577 180.558 73.3393 180.32 73.3393 180.083C73.3393 179.797 73.4344 179.607 73.5294 179.607C73.6721 179.607 73.9098 179.797 74.0524 180.083ZM194.094 189.591C194.094 190.256 191.765 191.112 191.147 190.732C190.861 190.542 190.766 190.637 190.909 190.922C191.099 191.207 190.338 191.73 189.007 192.206C184.11 193.917 181.068 194.773 180.64 194.488C180.355 194.345 180.307 194.44 180.497 194.725C180.83 195.248 180.164 195.486 178.548 195.438C178.215 195.391 177.93 195.581 177.93 195.819C177.93 196.056 177.597 196.247 177.217 196.247C176.837 196.247 176.504 196.009 176.504 195.676C176.504 195.248 176.361 195.248 175.933 195.676C175.268 196.342 174.602 196.437 174.602 195.819C174.602 195.581 174.982 195.296 175.458 195.153C175.886 195.011 179.499 193.774 183.397 192.396C187.343 191.065 190.909 189.924 191.337 189.971C191.812 189.971 192.287 189.829 192.43 189.543C192.81 188.973 194.094 188.973 194.094 189.591ZM95.0181 197.53C95.3509 197.863 96.0165 198.006 96.4919 197.863C97.3001 197.625 97.3001 197.625 96.4919 198.148C95.8263 198.576 95.446 198.576 95.0656 198.196C94.7804 197.911 94.1623 197.673 93.6869 197.673C93.2115 197.673 92.8312 197.435 92.8312 197.15C92.8312 196.912 93.0689 196.817 93.3541 197.007C93.7345 197.197 93.782 196.96 93.5919 196.199C93.2591 195.106 93.3066 195.106 93.8296 196.009C94.1623 196.532 94.6853 197.245 95.0181 197.53ZM173.841 196.912C173.509 197.815 172.653 197.958 172.843 197.055C172.938 196.484 173.746 195.724 173.984 195.961C174.079 196.056 174.032 196.484 173.841 196.912ZM172.225 197.435C172.225 197.673 171.464 197.958 170.514 198.006C168.945 198.101 168.897 198.006 169.658 197.435C170.704 196.722 172.225 196.674 172.225 197.435ZM168.422 198.101C168.422 198.338 168.137 198.766 167.756 199.052C167.186 199.527 167.091 199.479 167.233 198.766C167.328 198.291 167.423 197.863 167.423 197.768C167.519 197.483 168.422 197.72 168.422 198.101ZM99.7247 199.574C99.8673 199.812 99.5821 200.05 99.0591 200.05C98.4886 200.05 98.0607 199.812 98.0607 199.574C98.0607 199.289 98.346 199.099 98.7263 199.099C99.1066 199.099 99.582 199.289 99.7247 199.574ZM207.025 46.0162C207.025 46.6818 207.12 46.9195 207.263 46.5867C207.358 46.3015 207.358 45.731 207.263 45.3982C207.12 45.1129 207.025 45.3506 207.025 46.0162ZM207.453 50.5802C207.453 51.1031 207.596 51.2457 207.738 50.8654C207.881 50.5326 207.833 50.1047 207.691 49.9621C207.548 49.772 207.406 50.0572 207.453 50.5802ZM207.501 52.672C207.501 53.3376 207.596 53.5753 207.738 53.2425C207.833 52.9572 207.833 52.3867 207.738 52.0539C207.596 51.7687 207.501 52.0064 207.501 52.672ZM208.356 67.6475C208.356 68.3131 208.547 68.836 208.784 68.836C208.974 68.836 209.07 68.3131 208.927 67.6475C208.832 66.9819 208.642 66.4589 208.547 66.4589C208.452 66.4589 208.356 66.9819 208.356 67.6475ZM208.927 70.2622C208.927 70.9278 209.022 71.1655 209.165 70.8327C209.26 70.5475 209.26 69.977 209.165 69.6442C209.022 69.359 208.927 69.5967 208.927 70.2622ZM208.832 73.3524C208.832 74.2557 209.022 75.0164 209.212 75.0164C209.402 75.0164 209.497 74.2557 209.402 73.3524C209.307 72.4491 209.117 71.6885 209.022 71.6885C208.927 71.6885 208.832 72.4491 208.832 73.3524ZM209.45 77.6311C209.45 78.9148 209.545 79.4377 209.64 78.6771C209.735 77.9639 209.735 76.918 209.64 76.3C209.545 75.7295 209.45 76.3 209.45 77.6311Z" fill="#CBD5E1"/>
<path d="M209.497 81.4344C209.64 82.1951 209.878 85.2377 210.02 88.1377C210.211 91.0378 210.543 93.7001 210.829 94.0804C211.161 94.5558 211.209 94.223 211.019 93.082C210.876 92.1788 210.638 89.1837 210.448 86.4263C210.306 83.6689 209.973 81.1016 209.688 80.7213C209.402 80.1984 209.355 80.4361 209.497 81.4344ZM74.3852 123.033C74.3852 123.699 74.4803 123.936 74.6229 123.604C74.718 123.318 74.718 122.748 74.6229 122.415C74.4803 122.13 74.3852 122.367 74.3852 123.033ZM187.724 125.03C187.866 125.22 188.151 125.41 188.437 125.41C188.674 125.41 188.865 125.22 188.865 125.03C188.865 124.792 188.532 124.602 188.151 124.602C187.771 124.602 187.581 124.792 187.724 125.03ZM74.3852 126.361C74.3852 127.026 74.4803 127.264 74.6229 126.931C74.718 126.646 74.718 126.076 74.6229 125.743C74.4803 125.458 74.3852 125.695 74.3852 126.361ZM74.2901 128.738C74.2901 129.261 74.5278 129.689 74.7655 129.689C75.0508 129.689 75.2409 129.261 75.2409 128.738C75.2409 128.215 75.0508 127.787 74.7655 127.787C74.5278 127.787 74.2901 128.215 74.2901 128.738ZM75.2409 131.02C75.2409 131.923 76.1442 133.492 76.6672 133.492C77.3803 133.492 77.2377 132.922 76.1918 131.59C75.6688 130.925 75.2409 130.687 75.2409 131.02ZM73.0065 143.713C73.0065 144.094 73.1967 144.284 73.4344 144.141C73.6245 143.999 73.8147 143.713 73.8147 143.428C73.8147 143.191 73.6245 143 73.4344 143C73.1967 143 73.0065 143.333 73.0065 143.713ZM75.8114 166.723C75.2885 167.056 75.2885 167.151 75.8114 167.389C76.2393 167.532 76.5246 167.341 76.5246 166.961C76.5246 166.581 76.477 166.296 76.477 166.296C76.4295 166.296 76.1442 166.486 75.8114 166.723ZM93.0689 166.771C93.2115 167.009 93.4492 167.246 93.5919 167.246C93.687 167.246 93.782 167.009 93.782 166.771C93.782 166.486 93.5443 166.296 93.2591 166.296C93.0214 166.296 92.9263 166.486 93.0689 166.771ZM81.0885 168.435C80.9459 168.863 80.9459 169.291 81.041 169.433C81.1836 169.576 81.4213 169.243 81.5639 168.673C81.8492 167.579 81.5164 167.389 81.0885 168.435ZM86.4131 168.197C85.5099 168.53 85.5098 168.53 86.5558 169.101C87.1262 169.386 87.6017 169.481 87.6017 169.291C87.6017 169.1 87.8394 169.243 88.0771 169.623C88.4574 170.241 88.5525 170.242 88.5525 169.576C88.5525 168.435 87.5066 167.769 86.4131 168.197ZM74.8131 168.625C74.4327 168.863 74.3852 169.148 74.6704 169.338C74.9081 169.481 75.2409 169.291 75.4311 168.91C75.7163 168.102 75.7164 168.055 74.8131 168.625ZM65.9704 170.099C66.113 170.337 66.3507 170.574 66.4934 170.574C66.5884 170.574 66.6835 170.337 66.6835 170.099C66.6835 169.814 66.4458 169.623 66.1606 169.623C65.9228 169.623 65.8278 169.814 65.9704 170.099ZM66.4934 174.71C66.2081 175.376 66.2556 175.423 66.7311 174.996C67.0638 174.663 67.2065 174.283 67.0638 174.14C66.9212 173.997 66.636 174.235 66.4934 174.71ZM68.2524 175.614C68.1097 175.994 68.2524 176.612 68.5852 176.897C69.0606 177.373 69.1557 177.278 68.918 176.66C68.7278 176.137 68.8229 175.946 69.2507 176.089C69.5835 176.232 70.0114 175.994 70.154 175.614C70.3917 175.091 70.154 174.853 69.4884 174.853C68.9655 174.853 68.4425 175.186 68.2524 175.614Z" fill="#CBD5E1"/>
</svg>
